{
	"v3": {
		"version": "v3",
		"created": "",
		"last_updated": "",
		"path": "static/tos/tos-v3.md"
	},
	"v2": {
		"version": "v2",
		"created": "",
		"last_updated": "",
		"path": "static/tos/tos-v2.md"
	},
	"v1": {
		"version": "v1",
		"created": "",
		"last_updated": "",
		"path": "static/tos/tos-v1.md"
	}	
}